{
    "status_code": "SUCCESS",
    "msg": "SUCCESS",
    "result": [
        {
            "id": "d8c4be18-0097-41a4-becc-15943ac3ca5d",
            "first_name": "TEST",
            "last_name": "DEV",
            "display_name": "FG",
            "preferred_language": "tc",
            "policies": [
                "policy.assetService.tenantAccess.fullAccess",
                "policy.communityService.assets.management",
                "policy.buildingService.campusInfo.readOnly",
                "policy.analytics.spendingEventsAndGift.fullAccess",
                "policy.tenantService.userManagement.fullAccess",
                "policy.analytics.visitor.fullAccess",
                "policy.accessControl.readOnly",
                "policy.analytics.accessControl.fullAccess",
                "policy.tenantService.permissionControlService.fullAccess",
                "policy.leasingManagement.appConfigManagement.internalPreview",
                "policy.account.normalUser",
                "policy.analytics.member.fullAccess",
                "policy.tenantService.generalService.tenantInfo.readOnly",
                "policy.platformManagement.iotManagement.fullAccess",
                "policy.platformManagement.supplierManagement.fullAccess",
                "policy.propertiesManagementService.generalService.basic",
                "policy.marketService.tenantAccess.fullAccess",
                "policy.communityService.cms.admin",
                "policy.platformManagement.apiKeyGroupManagement.fullAccess",
                "policy.leasingManagement.appConfigManagement.fullAccess",
                "policy.permissionControlService.platformManagement.publicAccessManagement.fullAccess",
                "policy.platformManagement.customUserGroupManagement.fullAccess",
                "policy.propertiesManagementService.campusInfo.readOnly",
                "policy.permissionControlService.platformManagement.userAccessibleSpaceTypeManagement.fullAccess",
                "policy.buildingService.accessControlService.genericQRCodeAccess",
                "policy.account.tenantBindingRequest",
                "policy.platformManagement.leasingManagement.fullAccess",
                "policy.platformManagement.campusManagement.fullAccess",
                "policy.authService.platformManagement.userManagement.fullAccess",
                "policy.leasingManagement.memberService.membership",
                "policy.leasingManagement.generalService.basic",
                "policy.propertiesManagementCompany.merchant.merchantManagement",
                "policy.analytics.workOrder.fullAccess",
                "policy.communityService.assets.voucher",
                "policy.shuttleBusService.propertiesManagementAccess.fullAccess",
                "policy.tenantService.generalService.tenantInfo.fullAccess",
                "policy.platformManagement.acxSimulatorService.fullAccess",
                "policy.platformManagement.userGroupCategoryManagement.fullAccess",
                "policy.platformManagement.entityLookup.readOnly",
                "policy.facilityService.trainer.fullAccess",
                "policy.facilityService.propertiesManagementAccess.fullAccess"
            ],
            "token_type": "bearer",
            "access_token": "eyJhbGciOiJIUzI1NiIsInR5cCI6IkpXVCJ9.eyJpYXQiOjE2NzU3MzczNzQsImV4cCI6MTY3NTgyMzc3NCwicmFuIjoiRnhaWk1idTJZR3h1WUdNMSIsInVzZXJJZCI6ImQ4YzRiZTE4LTAwOTctNDFhNC1iZWNjLTE1OTQzYWMzY2E1ZCIsImRpc3BsYXlOYW1lIjoiRkciLCJyZWZyZXNoVG9rZW4iOiIiLCJhcmVhQ29kZSI6Ijg1MiIsInBob25lTnVtYmVyIjoiMzMzMzY4NjgiLCJvcmdhbml6YXRpb25JZGVudGlmaWVyIjoiaGxkIn0.rk8PBr9Jdsp87a036R5ktkuLhaDM4jL9ot7w4Z1REyA",
            "expires_in": 86400,
            "refresh_token": "wdFwNSiBlKV31gDakZQny4hInhqBcuaUhi7VhXfj"
        }
    ]
}