<?xml version="1.0" encoding="UTF-8"?>
<testng-results skipped="0" failed="1" ignored="0" total="1" passed="0">
  <reporter-output>
  </reporter-output>
  <suite name="Suite" duration-ms="39724" started-at="2023-03-01T07:07:49Z" finished-at="2023-03-01T07:08:29Z">
    <groups>
    </groups>
    <test name="test" duration-ms="39724" started-at="2023-03-01T07:07:49Z" finished-at="2023-03-01T07:08:29Z">
      <class name="appRunner.HCircleAppRunner_Testing">
        <test-method status="PASS" signature="ConfigureAppium()[pri:0, instance:appRunner.HCircleAppRunner_Testing@754ba872]" name="ConfigureAppium" is-config="true" duration-ms="28156" started-at="2023-03-01T07:07:49Z" finished-at="2023-03-01T07:08:18Z">
          <reporter-output>
          </reporter-output>
        </test-method> <!-- ConfigureAppium -->
        <test-method status="FAIL" signature="LoginAndLogout()[pri:1, instance:appRunner.HCircleAppRunner_Testing@754ba872]" name="LoginAndLogout" duration-ms="11142" started-at="2023-03-01T07:08:18Z" finished-at="2023-03-01T07:08:29Z">
          <exception class="java.lang.AssertionError">
            <message>
              <![CDATA[expected [TEST DEV] but found [遊客]]]>
            </message>
            <full-stacktrace>
              <![CDATA[java.lang.AssertionError: expected [TEST DEV] but found [遊客]
at org.testng.Assert.fail(Assert.java:96)
at org.testng.Assert.failNotEquals(Assert.java:776)
at org.testng.Assert.assertEqualsImpl(Assert.java:137)
at org.testng.Assert.assertEquals(Assert.java:118)
at org.testng.Assert.assertEquals(Assert.java:453)
at org.testng.Assert.assertEquals(Assert.java:463)
at pages.android.ProfilePageAndroid.checkUsername(ProfilePageAndroid.java:43)
at steps.android.LoginStepAndroid.loginStep(LoginStepAndroid.java:12)
at appRunner.HCircleAppRunner_Testing.LoginAndLogout(HCircleAppRunner_Testing.java:12)
at sun.reflect.NativeMethodAccessorImpl.invoke0(Native Method)
at sun.reflect.NativeMethodAccessorImpl.invoke(NativeMethodAccessorImpl.java:62)
at sun.reflect.DelegatingMethodAccessorImpl.invoke(DelegatingMethodAccessorImpl.java:43)
at java.lang.reflect.Method.invoke(Method.java:498)
at org.testng.internal.MethodInvocationHelper.invokeMethod(MethodInvocationHelper.java:124)
at org.testng.internal.Invoker.invokeMethod(Invoker.java:583)
at org.testng.internal.Invoker.invokeTestMethod(Invoker.java:719)
at org.testng.internal.Invoker.invokeTestMethods(Invoker.java:989)
at org.testng.internal.TestMethodWorker.invokeTestMethods(TestMethodWorker.java:125)
at org.testng.internal.TestMethodWorker.run(TestMethodWorker.java:109)
at org.testng.TestRunner.privateRun(TestRunner.java:648)
at org.testng.TestRunner.run(TestRunner.java:505)
at org.testng.SuiteRunner.runTest(SuiteRunner.java:455)
at org.testng.SuiteRunner.runSequentially(SuiteRunner.java:450)
at org.testng.SuiteRunner.privateRun(SuiteRunner.java:415)
at org.testng.SuiteRunner.run(SuiteRunner.java:364)
at org.testng.SuiteRunnerWorker.runSuite(SuiteRunnerWorker.java:52)
at org.testng.SuiteRunnerWorker.run(SuiteRunnerWorker.java:84)
at org.testng.TestNG.runSuitesSequentially(TestNG.java:1208)
at org.testng.TestNG.runSuitesLocally(TestNG.java:1137)
at org.testng.TestNG.runSuites(TestNG.java:1049)
at org.testng.TestNG.run(TestNG.java:1017)
at org.apache.maven.surefire.testng.TestNGExecutor.run(TestNGExecutor.java:324)
at org.apache.maven.surefire.testng.TestNGXmlTestSuite.execute(TestNGXmlTestSuite.java:74)
at org.apache.maven.surefire.testng.TestNGProvider.invoke(TestNGProvider.java:123)
at org.apache.maven.surefire.booter.ForkedBooter.runSuitesInProcess(ForkedBooter.java:456)
at org.apache.maven.surefire.booter.ForkedBooter.execute(ForkedBooter.java:169)
at org.apache.maven.surefire.booter.ForkedBooter.run(ForkedBooter.java:595)
at org.apache.maven.surefire.booter.ForkedBooter.main(ForkedBooter.java:581)
]]>
            </full-stacktrace>
          </exception> <!-- java.lang.AssertionError -->
          <reporter-output>
          </reporter-output>
        </test-method> <!-- LoginAndLogout -->
        <test-method status="PASS" signature="tearDown()[pri:0, instance:appRunner.HCircleAppRunner_Testing@754ba872]" name="tearDown" is-config="true" duration-ms="405" started-at="2023-03-01T07:08:29Z" finished-at="2023-03-01T07:08:29Z">
          <reporter-output>
          </reporter-output>
        </test-method> <!-- tearDown -->
      </class> <!-- appRunner.HCircleAppRunner_Testing -->
    </test> <!-- test -->
  </suite> <!-- Suite -->
</testng-results>
