{
    "status_code": "SUCCESS",
    "msg": "SUCCESS",
    "result": [
        {
            "id": "qPcrJi1WyDcLNpPtHsYFp",
            "start_time": 1668739419664,
            "end_time": 1668739479664,
            "number_of_use": 1,
            "code": "8e2a49c7-25de-4cad-ae90-ab775027d5e7",
            "scramble_timeout_ms": 15000,
            "create_ts": 1668739419685,
            "time_difference": 0
        }
    ]
}